4 Datenmodifikation – R Workshop – Sozialwissenschaften
…
Tipp

SPSS → R. In SPSS bist du gewohnt, dass alle Funktionen direkt verfügbar sind. In R aktivierst du dir mit library() gezielt die Werkzeuge, die du brauchst — das hält den Funktions-Namensraum übersichtlich und macht jeden Schritt nachvollziehbar.

4.3 Datensatz einlesen

Der ALLBUS 2023 liegt als SPSS-Datei (ALLBUS2023.sav) im Projektordner. Mit read_spss() aus mariposa liest du sie ein:

allbus <- read_spss("ALLBUS2023.sav")

allbus ist jetzt ein Tibble — ein moderner Datentyp im tidyverse. Tibbles verhalten sich wie klassische Data Frames, drucken aber kompakter und behalten ihre Spaltentypen besser. Was wir geladen haben:

allbus
## # A tibble: 5,246 × 579
##    za_nr          doi   version respid substudy    mode    splt23_1    splt23_2 
##    <dbl+lbl>      <chr> <chr>    <dbl> <dbl+lbl>   <dbl+l> <dbl+lbl>   <dbl+lbl>
##  1 8831 [ALLBUSc… http… v1.3.0…      1 NA(a) [TNZ… 2 [CAP… NA(a) [TNZ…   2 [SPL…
##  2 8831 [ALLBUSc… http… v1.3.0…      2     1 [SIM… 3 [CAW…     1 [SPL… -15 [TNZ…
##  3 8831 [ALLBUSc… http… v1.3.0…      3     1 [SIM… 4 [MAI…     1 [SPL… -15 [TNZ…
##  4 8831 [ALLBUSc… http… v1.3.0…      4     1 [SIM… 4 [MAI…     1 [SPL… -15 [TNZ…
##  5 8831 [ALLBUSc… http… v1.3.0…      5     2 [SEQ… 3 [CAW…     2 [SPL… -15 [TNZ…
##  6 8831 [ALLBUSc… http… v1.3.0…      6 NA(a) [TNZ… 2 [CAP… NA(a) [TNZ…   1 [SPL…
##  7 8831 [ALLBUSc… http… v1.3.0…      7     1 [SIM… 4 [MAI…     1 [SPL… -15 [TNZ…
##  8 8831 [ALLBUSc… http… v1.3.0…      8     1 [SIM… 3 [CAW…     1 [SPL… -15 [TNZ…
##  9 8831 [ALLBUSc… http… v1.3.0…      9     2 [SEQ… 3 [CAW…     2 [SPL… -15 [TNZ…
## 10 8831 [ALLBUSc… http… v1.3.0…     10 NA(a) [TNZ… 2 [CAP… NA(a) [TNZ…   2 [SPL…
## # ℹ 5,236 more rows
## # ℹ 571 more variables: eastwest <dbl+lbl>, german <dbl+lbl>, ep01 <dbl+lbl>,
## #   ep03 <dbl+lbl>, ep04 <dbl+lbl>, ep06 <dbl+lbl>, xr19 <dbl+lbl>,
## #   xr20 <dbl+lbl>, lm27 <dbl+lbl>, lm28 <dbl+lbl>, lm29 <dbl+lbl>,
## #   lm30 <dbl+lbl>, lm31 <dbl+lbl>, lm32 <dbl+lbl>, lm33 <dbl+lbl>,
## #   lm34 <dbl+lbl>, la01 <dbl+lbl>, li01 <dbl+lbl>, li02 <dbl+lbl>,
## #   li03 <dbl+lbl>, li04 <dbl+lbl>, li05 <dbl+lbl>, li09 <dbl+lbl>, …
…
Tipp

SPSS → R: Dateninspektion. | SPSS | R | | ——————————- | ——————————– | | FREQUENCIES VARIABLES=mm01. | allbus \|> frequency(mm01) | | DESCRIPTIVES VARIABLES=age. | allbus \|> describe(age) | | DISPLAY DICTIONARY. | allbus \|> codebook(...) |

4.5 Variablen und Fälle auswählen

Die dplyr-Funktionen select(), filter() und arrange() sind dein tägliches Werkzeug, um aus einem großen Datensatz das herauszuholen, was du gerade brauchst.

4.5.1 Variablen auswählen mit select()

allbus |>
  select(mm01, mm02, mm03)
## # A tibble: 5,246 × 3
##    mm01                        mm02                        mm03              
##    <dbl+lbl>                   <dbl+lbl>                   <dbl+lbl>         
##  1     5 [..]                      3 [..]                      4 [..]        
##  2 NA(b) [TNZ: SPLIT]          NA(b) [TNZ: SPLIT]          NA(b) [TNZ: SPLIT]
##  3 NA(b) [TNZ: SPLIT]          NA(b) [TNZ: SPLIT]          NA(b) [TNZ: SPLIT]
##  4 NA(b) [TNZ: SPLIT]          NA(b) [TNZ: SPLIT]          NA(b) [TNZ: SPLIT]
##  5     2 [..]                      4 [..]                      4 [..]        
##  6     3 [..]                      3 [..]                      3 [..]        
##  7 NA(b) [TNZ: SPLIT]          NA(b) [TNZ: SPLIT]          NA(b) [TNZ: SPLIT]
##  8 NA(b) [TNZ: SPLIT]          NA(b) [TNZ: SPLIT]          NA(b) [TNZ: SPLIT]
##  9     1 [STIMME GAR NICHT ZU]     6 [..]                      2 [..]        
## 10     7 [STIMME VOLL+GANZ ZU]     1 [STIMME GAR NICHT ZU]     3 [..]        
## # ℹ 5,236 more rows

Du kannst Bereiche mit : angeben und Variablen mit - ausschließen:

allbus |>
  select(mm01:mm06, eastwest, sex, age, educ)
## # A tibble: 5,246 × 10
##    mm01              mm02        mm03        mm04        mm05        mm06       
##    <dbl+lbl>         <dbl+lbl>   <dbl+lbl>   <dbl+lbl>   <dbl+lbl>   <dbl+lbl>  
##  1     5 [..]            3 [..]      4 [..]      2 [..]      6 [..]      2 [..] 
##  2 NA(b) [TNZ: SPLI… NA(b) [TNZ… NA(b) [TNZ… NA(b) [TNZ… NA(a) [TNZ… NA(a) [TNZ…
##  3 NA(b) [TNZ: SPLI… NA(b) [TNZ… NA(b) [TNZ… NA(b) [TNZ… NA(a) [TNZ… NA(a) [TNZ…
##  4 NA(b) [TNZ: SPLI… NA(b) [TNZ… NA(b) [TNZ… NA(b) [TNZ… NA(a) [TNZ… NA(a) [TNZ…
##  5     2 [..]            4 [..]      4 [..]      3 [..]      3 [..]      6 [..] 
##  6     3 [..]            3 [..]      3 [..]      7 [STI…     6 [..]      3 [..] 
##  7 NA(b) [TNZ: SPLI… NA(b) [TNZ… NA(b) [TNZ… NA(b) [TNZ… NA(a) [TNZ… NA(a) [TNZ…
##  8 NA(b) [TNZ: SPLI… NA(b) [TNZ… NA(b) [TNZ… NA(b) [TNZ… NA(a) [TNZ… NA(a) [TNZ…
##  9     1 [STIMME GA…     6 [..]      2 [..]      1 [STI…     7 [STI…     2 [..] 
## 10     7 [STIMME VO…     1 [STI…     3 [..]      6 [..]      1 [STI…     7 [STI…
## # ℹ 5,236 more rows
## # ℹ 4 more variables: eastwest <dbl+lbl>, sex <dbl+lbl>, age <dbl+lbl>,
## #   educ <dbl+lbl>

Diese Auswahl — die sechs Skalen-Items plus Demografie — ist genau das, was du für die Mini-Studie brauchst.

Zwei nahe Verwandte von select():

pull(var) zieht eine einzelne Spalte als reinen Vektor heraus — nützlich, wenn du den Spalteninhalt direkt in eine Funktion füttern willst, die kein Tibble erwartet: allbus |> pull(age) |> mean(na.rm = TRUE).

relocate(var, .before = X, .after = Y) sortiert Spalten um, ohne welche zu entfernen — praktisch, wenn die wichtigsten Variablen vorne stehen sollen: allbus |> relocate(islamophobie, populismus, .before = sex).

4.5.2 Fälle filtern mit filter()

allbus |>
  filter(sex == 2) |>
  select(sex, age, educ)
## # A tibble: 2,672 × 3
##    sex       age       educ                  
##    <dbl+lbl> <dbl+lbl> <dbl+lbl>             
##  1 2 [FRAU]  69        4 [FACHHOCHSCHULREIFE]
##  2 2 [FRAU]  18        5 [HOCHSCHULREIFE]    
##  3 2 [FRAU]  45        5 [HOCHSCHULREIFE]    
##  4 2 [FRAU]  26        3 [MITTLERE REIFE]    
##  5 2 [FRAU]  71        2 [VOLKS-,HAUPTSCHULE]
##  6 2 [FRAU]  66        2 [VOLKS-,HAUPTSCHULE]
##  7 2 [FRAU]  39        3 [MITTLERE REIFE]    
##  8 2 [FRAU]  51        3 [MITTLERE REIFE]    
##  9 2 [FRAU]  29        5 [HOCHSCHULREIFE]    
## 10 2 [FRAU]  60        4 [FACHHOCHSCHULREIFE]
## # ℹ 2,662 more rows
…
