3 Datenverarbeitung | R Workshop - Sozialwissenschaften
…
# Ohne Pipe
select(datensatz, variable1, variable2:variable3, -variable4)

# Mit Pipe
datensatz %>% 
  select(variable1, variable2:variable3, -variable4)

Mit dem Befehl select() wurden aus dem Datensatz datensatz die Variablen variable1, variable2 bis variable3 ausgewählt. variable4 wurde weggelassen.

Beispielcode:

# Nur Einstellung zu Leistungsprinzip (im19) im neuen Datensatz `df1`
(ds1 <- allbus2018 %>% 
  select(im19))
#> # A tibble: 3,477 x 1
#>     im19
#>    <dbl>
#>  1     4
#>  2     4
#>  3     2
#>  4     4
#>  5     4
#>  6     2
#>  7     4
#>  8     4
#>  9     3
#> 10     4
#> # … with 3,467 more rows

# Einstellungen zum Leistungsprinzip (im19) und Befürwortung von Ungleichheit - (im20)
(ds2 <- allbus2018 %>% 
  select(im19, im20))
#> # A tibble: 3,477 x 2
#>     im19  im20
#>    <dbl> <dbl>
#>  1     4     2
#>  2     4     4
#>  3     2     3
#>  4     4     2
#>  5     4     4
#>  6     2     2
#>  7     4     4
#>  8     4     3
#>  9     3     2
#> 10     4     3
#> # … with 3,467 more rows

# Löschen von Befürwortung von Ungleichheit (im20)
(ds2 <- ds2 %>% 
  select(-im20))
#> # A tibble: 3,477 x 1
#>     im19
#>    <dbl>
#>  1     4
#>  2     4
#>  3     2
#>  4     4
#>  5     4
#>  6     2
#>  7     4
#>  8     4
#>  9     3
#> 10     4
#> # … with 3,467 more rows
…
Die logischen Operatoren in R sind recht selbsterklärend und sollten bei eigener Anwendung recht schnell verstanden sein.

Wir wollen uns ein paar Beispielen mit der Variable … widmen.

Beispielcode:

allbus2018 %>% 
  filter(german == 1)
#> # A tibble: 3,218 x 708
#>    za_nr doi      version   respid eastwest german  ep01  ep03  ep04  ep06  lm01
#>    <dbl> <chr>    <chr>      <dbl>    <dbl>  <dbl> <dbl> <dbl> <dbl> <dbl> <dbl>
#>  1  5270 doi:10.… 2.0.0 (2…      1        1      1     1     2     2     3     6
#>  2  5270 doi:10.… 2.0.0 (2…      2        2      1     2     4     3     3     7
#>  3  5270 doi:10.… 2.0.0 (2…      3        1      1     2     2     3     2     2
#>  4  5270 doi:10.… 2.0.0 (2…      4        2      1     2     2     3     3     7
#>  5  5270 doi:10.… 2.0.0 (2…      5        2      1     3     2     3     2     7
#>  6  5270 doi:10.… 2.0.0 (2…      6        1      1     1     3     3     2     3
#>  7  5270 doi:10.… 2.0.0 (2…      7        1      1     3     2     3     3     7
#>  8  5270 doi:10.… 2.0.0 (2…      8        1      1     2     3     3     2     2
#>  9  5270 doi:10.… 2.0.0 (2…      9        1      1     1     2     4     3     3
#> 10  5270 doi:10.… 2.0.0 (2…     10        2      1     2     2     2     3     7
#> # … with 3,208 more rows, and 697 more variables: lm02 <dbl>, lm19 <dbl>,
#> #   lm20 <dbl>, lm21 <dbl>, lm22 <dbl>, lm14 <dbl>, lm23 <dbl>, lm24 <dbl>,
#> #   pa09 <dbl>, pa10 <dbl>, pa11 <dbl>, pa12 <dbl>, pa13 <dbl>, pa14 <dbl>,
#> #   pa15 <dbl>, pa16 <dbl>, pa17 <dbl>, pa08a <dbl>, pa18 <dbl>, pa19 <dbl>,
#> #   pp06 <dbl>, pp07 <dbl>, pp08 <dbl>, pp09 <dbl>, pp10 <dbl>, pp12 <dbl>,
#> #   pp17 <dbl>, pp18 <dbl>, pp19 <dbl>, pp20 <dbl>, pp22 <dbl>, pp60 <dbl>,
#> #   pp23 <dbl>, pp61 <dbl>, pp62 <dbl>, pp24 <dbl>, pp25 <dbl>, pp26 <dbl>,
#> #   pp27 <dbl>, pp28 <dbl>, pp30 <dbl>, pp35 <dbl>, pp36 <dbl>, pp37 <dbl>,
#> #   pp38 <dbl>, pp40 <dbl>, pp70 <dbl>, pp41 <dbl>, pp71 <dbl>, pp72 <dbl>,
…
