4 Uni- und Bivariate Datenanalyse | R Workshop - Sozialwissenschaften
…
Beispielcode:

# Mittelwert Leistungsprinzip (im19) 

allbus2018 %$% 
  weighted_mean(im19, weights = wghtpew)
#> [1] 2.48678

# Mittelwert Leistungsprinzip (im19) als neue Variable

ds <- allbus2018 %>% 
  transmute(mittelLeistung = weighted_mean(im19, weights = wghtpew)) 

ds
#> # A tibble: 3,477 x 1
#>    mittelLeistung
#>             <dbl>
#>  1           2.49
#>  2           2.49
#>  3           2.49
#>  4           2.49
#>  5           2.49
#>  6           2.49
#>  7           2.49
#>  8           2.49
#>  9           2.49
#> 10           2.49
#> # … with 3,467 more rows
…
Beispielcode:

# Mittelwert und Standardabweichung Leistungprinzip nach Ost-West (Fälle)

ds <- allbus2018 %>% 
  select(eastwest, im19, wghtpew) %>% 
  group_by(eastwest) %>% 
  mutate(leistungMittelOstWest = weighted_mean(im19, weights = wghtpew),
         leistungSDOstWest = weighted_sd(im19, weights = wghtpew)) %>% 
  ungroup() 

ds %>% 
  select(eastwest, leistungMittelOstWest, leistungSDOstWest)
#> # A tibble: 3,477 x 3
#>    eastwest leistungMittelOstWest leistungSDOstWest
#>       <dbl>                 <dbl>             <dbl>
#>  1        1                  2.46             0.923
#>  2        2                  2.60             0.985
#>  3        1                  2.46             0.923
#>  4        2                  2.60             0.985
#>  5        2                  2.60             0.985
#>  6        1                  2.46             0.923
#>  7        1                  2.46             0.923
#>  8        1                  2.46             0.923
#>  9        1                  2.46             0.923
#> 10        2                  2.60             0.985
#> # … with 3,467 more rows
…
